{
  "name": "Asteroid Field Expander",
  "author": "Ithirahad",
  "description": "Configurable server-side mod to generate bigger, nicer asteroid fields.",
  "version": "1.06 - Dimorphos",
  "starmade_version": "0.202.108",
  "client_mod": false,
  "server_mod": true,
  "main_class": "AsteroidFieldExpander.Main",
  "smd_resource_id": 8154,
  "dependencies": [
    -1
  ],
  "core_mod": false,
  "requires_class_resize": false
}
